<?xml version="1.0" standalone="no"?>
<!DOCTYPE svg PUBLIC "-//W3C//DTD SVG 20010904//EN"
 "http://www.w3.org/TR/2001/REC-SVG-20010904/DTD/svg10.dtd">
<svg version="1.0" xmlns="http://www.w3.org/2000/svg"
 width="1000.000000pt" height="1000.000000pt" viewBox="0 0 1000.000000 1000.000000"
 preserveAspectRatio="xMidYMid meet">
<metadata>
Created by potrace 1.11, written by Peter Selinger 2001-2013
</metadata>
<g transform="translate(0.000000,1000.000000) scale(0.100000,-0.100000)"
fill="#000000" stroke="none">
<path d="M3839 9996 c-2 -2 -31 -7 -64 -10 -71 -6 -170 -22 -170 -26 0 -1 -12
-3 -27 -5 -14 -2 -61 -13 -105 -25 -43 -13 -82 -23 -88 -25 -5 -1 -23 -7 -40
-14 -16 -6 -43 -16 -60 -22 -72 -26 -223 -97 -245 -115 -8 -7 -17 -12 -20 -12
-6 2 -77 -42 -155 -95 -124 -85 -247 -193 -366 -323 -46 -51 -174 -221 -191
-254 -7 -14 -15 -27 -18 -30 -37 -37 -194 -394 -215 -490 -2 -8 -13 -53 -24
-101 -11 -47 -23 -107 -27 -134 -3 -27 -9 -61 -12 -75 -3 -14 -7 -1874 -9
-4133 l-3 -4109 117 7 c65 4 120 8 123 10 3 1 32 6 65 10 81 10 100 13 100 15
0 1 7 3 16 5 106 20 295 83 397 130 29 14 55 25 58 25 3 0 19 9 35 21 16 11
29 18 29 15 0 -2 28 13 63 35 34 21 77 47 95 56 17 9 32 20 32 25 0 4 7 8 15
8 7 0 18 6 22 13 4 7 20 20 34 29 14 9 32 23 40 30 8 7 41 35 73 63 60 50 155
147 217 220 19 22 37 42 42 43 4 2 7 10 7 18 0 8 3 14 8 14 4 0 32 37 62 83
30 45 57 84 60 87 24 24 140 268 166 350 9 30 20 60 24 65 6 8 45 153 55 205
2 8 4 15 5 15 1 0 3 9 4 20 2 11 6 44 10 74 4 30 10 63 12 75 3 12 6 70 8 129
2 59 6 110 9 114 4 3 2 13 -3 22 -5 10 -5 23 0 31 4 7 4 23 0 36 -5 12 -6 25
-3 28 5 5 8 131 3 131 -1 0 -2 26 -3 58 -1 31 0 57 3 57 7 0 3 147 -4 166 -3
7 -1 14 4 14 5 0 5 13 0 30 -5 17 -6 30 -2 30 8 0 8 58 -1 66 -3 3 -2 16 3 29
5 13 6 25 3 28 -7 8 -8 106 0 113 3 3 1 19 -3 35 -5 16 -6 29 -2 29 8 0 7 108
-1 116 -3 3 -1 19 3 35 5 16 5 31 0 34 -5 3 -5 16 0 30 6 15 6 25 0 25 -5 0
-5 12 0 29 4 16 6 32 3 35 -7 6 -10 116 -3 116 7 0 3 147 -4 166 -3 7 -1 14 4
14 5 0 5 13 0 30 -5 17 -5 30 -2 30 4 0 6 17 4 38 -1 20 -3 43 -2 50 0 16 0
37 -1 94 0 26 2 52 6 58 3 5 2 10 -4 10 -6 0 -6 11 -1 30 5 18 5 32 -1 36 -5
3 -6 11 -2 17 4 6 6 26 5 45 -4 45 11 62 46 53 15 -4 41 -4 58 -1 18 4 37 5
42 1 6 -3 43 -4 82 -1 40 3 74 2 77 -2 2 -5 9 -5 15 -2 13 9 124 8 137 0 5 -4
12 -2 15 3 3 5 21 6 40 1 22 -5 38 -4 45 3 6 6 11 7 11 1 0 -6 26 -7 66 -4 36
3 68 2 70 -2 3 -4 15 -4 27 1 12 4 32 5 45 2 13 -3 55 -4 94 -1 38 3 72 2 75
-2 2 -5 9 -5 15 -2 13 9 124 8 137 0 5 -4 12 -2 15 3 3 5 21 6 40 1 22 -5 38
-4 45 3 6 6 11 7 11 1 0 -6 26 -7 66 -4 36 3 68 2 70 -2 3 -4 15 -4 27 1 12 4
32 5 45 2 13 -3 55 -4 94 -1 38 3 72 2 75 -2 2 -5 9 -5 15 -2 13 9 124 8 137
0 5 -4 12 -2 15 3 3 5 21 5 41 1 20 -4 38 -4 41 1 3 5 10 6 16 3 15 -10 326
-1 398 11 169 28 341 67 400 92 8 3 17 7 20 8 161 56 464 220 533 290 9 8 20
15 25 15 6 0 12 3 14 8 2 4 21 22 43 41 75 64 160 147 215 211 30 35 63 73 73
85 26 28 133 187 153 227 9 18 20 35 23 38 3 3 20 34 38 70 106 219 169 431
200 675 10 76 10 2406 1 2460 -4 22 -10 58 -13 80 -3 22 -8 51 -11 65 -3 14
-8 36 -11 50 -8 43 -42 168 -59 213 -8 23 -19 53 -23 67 -14 44 -106 239 -134
285 -111 180 -199 295 -321 417 -130 129 -235 210 -421 325 -60 37 -306 148
-350 158 -5 1 -17 4 -25 7 -45 17 -125 38 -139 38 -10 0 -21 3 -24 7 -4 3 -18
8 -32 10 -50 6 -115 18 -175 30 -36 7 -2404 16 -2411 9z"/>
</g>
</svg>
